%!PS-Adobe-3.0 EPSF-3.0
%%Creator: inkscape 0.46
%%Pages: 1
%%Orientation: Portrait
%%BoundingBox: 0 0 12 34
%%HiResBoundingBox: 7.3049016e-06 3.6097931e-06 11.652645 33.535751
%%EndComments
%%Page: 1 1
0 34 translate
0.8 -0.8 scale
0 0 0 setrgbcolor
[] 0 setdash
1 setlinewidth
0 setlinejoin
0 setlinecap
gsave [1 0 0 1 0 0] concat
gsave [-1 0 0 -1 247.8306 258.8548] concat
gsave [1 0 0 1 0 0] concat
gsave
0 0 0 setrgbcolor
newpath
237.68484 218.18353 moveto
234.289 220.0035 232.47956 223.29808 233.59262 225.77649 curveto
234.77988 228.42013 238.85963 229.16621 242.6992 227.44186 curveto
246.53876 225.7175 248.69136 222.17246 247.5041 219.52883 curveto
246.31683 216.88519 242.23709 216.13911 238.39752 217.86346 curveto
238.15755 217.97123 237.91124 218.0622 237.68484 218.18353 curveto
closepath
238.79457 220.42569 moveto
239.0358 220.30136 239.28005 220.20766 239.53576 220.09282 curveto
242.80883 218.62288 245.96997 218.55375 246.59187 219.93851 curveto
247.21377 221.32327 245.06209 223.64013 241.78902 225.11008 curveto
238.51594 226.58002 235.3548 226.64915 234.73291 225.26439 curveto
234.15959 223.98781 235.94804 221.89278 238.79457 220.42569 curveto
closepath
eofill
grestore
grestore
0 0 0 setrgbcolor
[] 0 setdash
1.5 setlinewidth
0 setlinejoin
0 setlinecap
newpath
234.05234 224.51692 moveto
234.05234 258.10449 lineto
stroke
grestore
grestore
showpage
%%EOF
