%!PS-Adobe-3.0 EPSF-3.0
%%Creator: inkscape 0.46
%%Pages: 1
%%Orientation: Portrait
%%BoundingBox: 0 0 20 34
%%HiResBoundingBox: 0.070866752 0.063999475 19.979738 33.464032
%%EndComments
%%Page: 1 1
0 34 translate
0.8 -0.8 scale
0 0 0 setrgbcolor
[] 0 setdash
1 setlinewidth
0 setlinejoin
0 setlinecap
gsave [1 0 0 1 0 0] concat
gsave [1 0 0 1 -427.06092 -34.11441] concat
gsave [1 0 0 1 0 0] concat
gsave
0 0 0 setrgbcolor
newpath
431.56955 65.847427 moveto
428.17371 67.667397 426.36427 70.961977 427.47733 73.440387 curveto
428.66459 76.084027 432.74434 76.830107 436.58391 75.105757 curveto
440.42347 73.381397 442.57607 69.836357 441.38881 67.192727 curveto
440.20154 64.549087 436.1218 63.803007 432.28223 65.527357 curveto
432.04226 65.635127 431.79595 65.726097 431.56955 65.847427 curveto
closepath
eofill
grestore
grestore
0 0 0 setrgbcolor
[] 0 setdash
1.5 setlinewidth
0 setlinejoin
0 setlinecap
newpath
441.18705 68.62194 moveto
441.18705 35.03437 lineto
stroke
gsave
0 0 0 setrgbcolor
newpath
441.1824 35.99421 moveto
440.6199 42.30671 446.02495 44.56795 448.6824 47.49421 curveto
451.20836 50.27568 452.13107 53.48393 452.02788 56.48981 curveto
452.00033 57.29238 451.78245 60.76992 449.41343 64.25653 curveto
452.58135 55.50942 449.6319 51.99847 446.75047 49.20495 curveto
443.26053 45.82149 440.66435 42.63277 441.1824 35.99421 curveto
closepath
eofill
grestore
grestore
grestore
showpage
%%EOF
