%!PS-Adobe-3.0 EPSF-3.0
%%Creator: inkscape 0.46
%%Pages: 1
%%Orientation: Portrait
%%BoundingBox: 0 0 65 35
%%HiResBoundingBox: -6.9509837e-07 2.9125274e-06 64.932341 34.025934
%%EndComments
%%Page: 1 1
0 35 translate
0.8 -0.8 scale
0 0 0 setrgbcolor
[] 0 setdash
1 setlinewidth
0 setlinejoin
0 setlinecap
gsave [1 0 0 1 0 0] concat
gsave [-1 0 0 -1 313.2829 340.82482] concat
gsave [1 0 0 1 0 0] concat
gsave
0 0 0 setrgbcolor
newpath
303.13715 299.65106 moveto
299.74131 301.47103 297.93187 304.76561 299.04493 307.24402 curveto
300.23219 309.88766 304.31194 310.63374 308.15151 308.90939 curveto
311.99107 307.18503 314.14367 303.63999 312.95641 300.99636 curveto
311.76914 298.35272 307.6894 297.60664 303.84983 299.33099 curveto
303.60986 299.43876 303.36355 299.52973 303.13715 299.65106 curveto
closepath
eofill
grestore
grestore
0 0 0 setrgbcolor
[] 0 setdash
1.5 setlinewidth
0 setlinejoin
0 setlinecap
newpath
299.50465 305.98445 moveto
299.50465 339.57202 lineto
stroke
grestore
gsave [-1 0 0 -1 0 0] concat
gsave
0 0 0 setrgbcolor
newpath
-48.812099 -13.435032 moveto
-31.540358 -13.435032 lineto
-31.540358 -8.8388376 lineto
-48.812099 -8.8388376 lineto
-48.812099 -13.435032 lineto
closepath
eofill
grestore
grestore
gsave [-1 0 0 -1 0 0] concat
gsave
0 0 0 setrgbcolor
newpath
-81.067886 -4.5961943 moveto
-12.973801 -4.5961943 lineto
-12.973801 0 lineto
-81.067886 0 lineto
-81.067886 -4.5961943 lineto
closepath
eofill
grestore
grestore
gsave [-1 0 0 -1 347.65301 340.87669] concat
gsave [1 0 0 1 0 0] concat
gsave
0 0 0 setrgbcolor
newpath
303.13715 299.65106 moveto
299.74131 301.47103 297.93187 304.76561 299.04493 307.24402 curveto
300.23219 309.88766 304.31194 310.63374 308.15151 308.90939 curveto
311.99107 307.18503 314.14367 303.63999 312.95641 300.99636 curveto
311.76914 298.35272 307.6894 297.60664 303.84983 299.33099 curveto
303.60986 299.43876 303.36355 299.52973 303.13715 299.65106 curveto
closepath
eofill
grestore
grestore
0 0 0 setrgbcolor
[] 0 setdash
1.5 setlinewidth
0 setlinejoin
0 setlinecap
newpath
299.50465 305.98445 moveto
299.50465 339.57202 lineto
stroke
grestore
gsave [1 0 0 1 0 0] concat
gsave
0 0 0 setrgbcolor
newpath
17.870985 35.201209 moveto
17.870985 33.924049 18.878345 32.888709 20.120985 32.888709 curveto
21.363625 32.888709 22.370985 33.924049 22.370985 35.201209 curveto
22.370985 36.478369 21.363625 37.513709 20.120985 37.513709 curveto
18.878345 37.513709 17.870985 36.478369 17.870985 35.201209 curveto
closepath
eofill
grestore
grestore
gsave [-1 0 0 -1 379.88253 340.93475] concat
gsave [1 0 0 1 0 0] concat
gsave
0 0 0 setrgbcolor
newpath
303.13715 299.65106 moveto
299.74131 301.47103 297.93187 304.76561 299.04493 307.24402 curveto
300.23219 309.88766 304.31194 310.63374 308.15151 308.90939 curveto
311.99107 307.18503 314.14367 303.63999 312.95641 300.99636 curveto
311.76914 298.35272 307.6894 297.60664 303.84983 299.33099 curveto
303.60986 299.43876 303.36355 299.52973 303.13715 299.65106 curveto
closepath
eofill
grestore
grestore
0 0 0 setrgbcolor
[] 0 setdash
1.5 setlinewidth
0 setlinejoin
0 setlinecap
newpath
299.50465 305.98445 moveto
299.50465 339.57202 lineto
stroke
grestore
grestore
showpage
%%EOF
