%!PS-Adobe-3.0 EPSF-3.0
%%Creator: inkscape 0.46
%%Pages: 1
%%Orientation: Portrait
%%BoundingBox: 0 0 40 35
%%HiResBoundingBox: 0.1785113 0.041788098 39.327237 34.021274
%%EndComments
%%Page: 1 1
0 35 translate
0.8 -0.8 scale
0 0 0 setrgbcolor
[] 0 setdash
1 setlinewidth
0 setlinejoin
0 setlinecap
gsave [1 0 0 1 0 0] concat
gsave [-1 0 0 -1 313.50604 340.82823] concat
gsave [1 0 0 1 0 0] concat
gsave
0 0 0 setrgbcolor
newpath
303.13715 299.65106 moveto
299.74131 301.47103 297.93187 304.76561 299.04493 307.24402 curveto
300.23219 309.88766 304.31194 310.63374 308.15151 308.90939 curveto
311.99107 307.18503 314.14367 303.63999 312.95641 300.99636 curveto
311.76914 298.35272 307.6894 297.60664 303.84983 299.33099 curveto
303.60986 299.43876 303.36355 299.52973 303.13715 299.65106 curveto
closepath
eofill
grestore
grestore
0 0 0 setrgbcolor
[] 0 setdash
1.5 setlinewidth
0 setlinejoin
0 setlinecap
newpath
299.50465 305.98445 moveto
299.50465 339.57202 lineto
stroke
grestore
gsave [-1 0 0 -1 0 0] concat
gsave
0 0 0 setrgbcolor
newpath
-49.03524 -13.438437 moveto
-31.763498 -13.438437 lineto
-31.763498 -8.8422432 lineto
-49.03524 -8.8422432 lineto
-49.03524 -13.438437 lineto
closepath
eofill
grestore
grestore
gsave [-1 0 0 -1 0 0] concat
gsave
0 0 0 setrgbcolor
newpath
-49.093407 -4.5996003 moveto
-13.196938 -4.5996003 lineto
-13.196938 -0.0034060478 lineto
-49.093407 -0.0034060478 lineto
-49.093407 -4.5996003 lineto
closepath
eofill
grestore
grestore
gsave [-1 0 0 -1 347.87615 340.8801] concat
gsave [1 0 0 1 0 0] concat
gsave
0 0 0 setrgbcolor
newpath
303.13715 299.65106 moveto
299.74131 301.47103 297.93187 304.76561 299.04493 307.24402 curveto
300.23219 309.88766 304.31194 310.63374 308.15151 308.90939 curveto
311.99107 307.18503 314.14367 303.63999 312.95641 300.99636 curveto
311.76914 298.35272 307.6894 297.60664 303.84983 299.33099 curveto
303.60986 299.43876 303.36355 299.52973 303.13715 299.65106 curveto
closepath
eofill
grestore
grestore
0 0 0 setrgbcolor
[] 0 setdash
1.5 setlinewidth
0 setlinejoin
0 setlinecap
newpath
299.50465 305.98445 moveto
299.50465 339.57202 lineto
stroke
grestore
gsave [1 0 0 1 0 0] concat
gsave
0 0 0 setrgbcolor
newpath
18.094124 35.204615 moveto
18.094124 33.927455 19.101484 32.892115 20.344124 32.892115 curveto
21.586764 32.892115 22.594124 33.927455 22.594124 35.204615 curveto
22.594124 36.481775 21.586764 37.517115 20.344124 37.517115 curveto
19.101484 37.517115 18.094124 36.481775 18.094124 35.204615 curveto
closepath
eofill
grestore
grestore
grestore
showpage
%%EOF
