%!PS-Adobe-3.0 EPSF-3.0
%%Creator: inkscape 0.46
%%Pages: 1
%%Orientation: Portrait
%%BoundingBox: 0 0 49 35
%%HiResBoundingBox: 1.5304902e-05 -2.6070871e-05 48.16988 34.104172
%%EndComments
%%Page: 1 1
0 35 translate
0.8 -0.8 scale
0 0 0 setrgbcolor
[] 0 setdash
1 setlinewidth
0 setlinejoin
0 setlinecap
gsave [1 0 0 1 0 0] concat
gsave [-1 0 0 -1 539.0272 260.8595] concat
gsave [1 0 0 1 0 0] concat
gsave
0 0 0 setrgbcolor
newpath
483.27303 219.83179 moveto
479.87719 221.65176 478.06775 224.94634 479.18081 227.42475 curveto
480.36807 230.06839 484.44782 230.81447 488.28739 229.09012 curveto
492.12695 227.36576 494.27955 223.82072 493.09229 221.17709 curveto
491.90502 218.53345 487.82528 217.78737 483.98571 219.51172 curveto
483.74574 219.61949 483.49943 219.71046 483.27303 219.83179 curveto
closepath
eofill
grestore
grestore
0 0 0 setrgbcolor
[] 0 setdash
1.5 setlinewidth
0 setlinejoin
0 setlinecap
newpath
479.64053 226.16518 moveto
479.64053 259.75275 lineto
stroke
gsave [1 0 0 1 0 0] concat
gsave
0 0 0 setrgbcolor
newpath
528.88143 219.47819 moveto
525.48559 221.29816 523.67615 224.59274 524.78921 227.07115 curveto
525.97647 229.71479 530.05622 230.46087 533.89579 228.73652 curveto
537.73535 227.01216 539.88795 223.46712 538.70069 220.82349 curveto
537.51342 218.17985 533.43368 217.43377 529.59411 219.15812 curveto
529.35414 219.26589 529.10783 219.35686 528.88143 219.47819 curveto
closepath
eofill
grestore
grestore
0 0 0 setrgbcolor
[] 0 setdash
1.5 setlinewidth
0 setlinejoin
0 setlinecap
newpath
525.24893 225.81158 moveto
525.24893 259.39915 lineto
stroke
gsave [1 0 0 1 0 0] concat
gsave
0 0 0 setrgbcolor
newpath
478.81485 256.51352 moveto
526.02679 256.51352 lineto
526.02679 260.85971 lineto
478.81485 260.85971 lineto
478.81485 256.51352 lineto
closepath
eofill
grestore
grestore
grestore
grestore
showpage
%%EOF
