%!PS-Adobe-3.0 EPSF-3.0
%%Creator: inkscape 0.46
%%Pages: 1
%%Orientation: Portrait
%%BoundingBox: 0 0 47 34
%%HiResBoundingBox: -6.9509837e-07 3.1586212e-06 46.151642 33.979486
%%EndComments
%%Page: 1 1
0 34 translate
0.8 -0.8 scale
0 0 0 setrgbcolor
[] 0 setdash
1 setlinewidth
0 setlinejoin
0 setlinecap
gsave [1 0 0 1 0 0] concat
gsave [-1 0 0 -1 313.2829 340.82482] concat
gsave [1 0 0 1 0 0] concat
gsave
0 0 0 setrgbcolor
newpath
303.13715 299.65106 moveto
299.74131 301.47103 297.93187 304.76561 299.04493 307.24402 curveto
300.23219 309.88766 304.31194 310.63374 308.15151 308.90939 curveto
311.99107 307.18503 314.14367 303.63999 312.95641 300.99636 curveto
311.76914 298.35272 307.6894 297.60664 303.84983 299.33099 curveto
303.60986 299.43876 303.36355 299.52973 303.13715 299.65106 curveto
closepath
eofill
grestore
grestore
0 0 0 setrgbcolor
[] 0 setdash
1.5 setlinewidth
0 setlinejoin
0 setlinecap
newpath
299.50465 305.98445 moveto
299.50465 339.57202 lineto
stroke
grestore
gsave [-1 0 0 -1 0 0] concat
gsave
0 0 0 setrgbcolor
newpath
-30.345329 -13.435032 moveto
-13.073587 -13.435032 lineto
-13.073587 -8.8388376 lineto
-30.345329 -8.8388376 lineto
-30.345329 -13.435032 lineto
closepath
eofill
grestore
grestore
gsave [-1 0 0 -1 0 0] concat
gsave
0 0 0 setrgbcolor
newpath
-48.870266 -4.5961943 moveto
-12.973797 -4.5961943 lineto
-12.973797 0 lineto
-48.870266 0 lineto
-48.870266 -4.5961943 lineto
closepath
eofill
grestore
grestore
gsave [-1 0 0 -1 347.65301 340.87669] concat
gsave [1 0 0 1 0 0] concat
gsave
0 0 0 setrgbcolor
newpath
303.13715 299.65106 moveto
299.74131 301.47103 297.93187 304.76561 299.04493 307.24402 curveto
300.23219 309.88766 304.31194 310.63374 308.15151 308.90939 curveto
311.99107 307.18503 314.14367 303.63999 312.95641 300.99636 curveto
311.76914 298.35272 307.6894 297.60664 303.84983 299.33099 curveto
303.60986 299.43876 303.36355 299.52973 303.13715 299.65106 curveto
closepath
eofill
grestore
grestore
0 0 0 setrgbcolor
[] 0 setdash
1.5 setlinewidth
0 setlinejoin
0 setlinecap
newpath
299.50465 305.98445 moveto
299.50465 339.57202 lineto
stroke
grestore
gsave [1 0 0 1 0 0] concat
gsave
0 0 0 setrgbcolor
newpath
53.189553 35.201209 moveto
53.189553 33.924049 54.196913 32.888709 55.439553 32.888709 curveto
56.682193 32.888709 57.689553 33.924049 57.689553 35.201209 curveto
57.689553 36.478369 56.682193 37.513709 55.439553 37.513709 curveto
54.196913 37.513709 53.189553 36.478369 53.189553 35.201209 curveto
closepath
eofill
grestore
grestore
grestore
showpage
%%EOF
