%!PS-Adobe-3.0 EPSF-3.0
%%Creator: cairo 1.8.10 (http://cairographics.org)
%%CreationDate: Wed May 26 22:14:44 2010
%%Pages: 1
%%BoundingBox: 0 0 11 35
%%DocumentData: Clean7Bit
%%LanguageLevel: 2
%%EndComments
%%BeginProlog
/cairo_eps_state save def
/dict_count countdictstack def
/op_count count 1 sub def
userdict begin
/q { gsave } bind def
/Q { grestore } bind def
/cm { 6 array astore concat } bind def
/w { setlinewidth } bind def
/J { setlinecap } bind def
/j { setlinejoin } bind def
/M { setmiterlimit } bind def
/d { setdash } bind def
/m { moveto } bind def
/l { lineto } bind def
/c { curveto } bind def
/h { closepath } bind def
/re { exch dup neg 3 1 roll 5 3 roll moveto 0 rlineto
      0 exch rlineto 0 rlineto closepath } bind def
/S { stroke } bind def
/f { fill } bind def
/f* { eofill } bind def
/B { fill stroke } bind def
/B* { eofill stroke } bind def
/n { newpath } bind def
/W { clip } bind def
/W* { eoclip } bind def
/BT { } bind def
/ET { } bind def
/pdfmark where { pop globaldict /?pdfmark /exec load put }
    { globaldict begin /?pdfmark /pop load def /pdfmark
    /cleartomark load def end } ifelse
/BDC { mark 3 1 roll /BDC pdfmark } bind def
/EMC { mark /EMC pdfmark } bind def
/cairo_store_point { /cairo_point_y exch def /cairo_point_x exch def } def
/Tj { show currentpoint cairo_store_point } bind def
/TJ {
  {
    dup
    type /stringtype eq
    { show } { -0.001 mul 0 cairo_font_matrix dtransform rmoveto } ifelse
  } forall
  currentpoint cairo_store_point
} bind def
/cairo_selectfont { cairo_font_matrix aload pop pop pop 0 0 6 array astore
    cairo_font exch selectfont cairo_point_x cairo_point_y moveto } bind def
/Tf { pop /cairo_font exch def /cairo_font_matrix where
      { pop cairo_selectfont } if } bind def
/Td { matrix translate cairo_font_matrix matrix concatmatrix dup
      /cairo_font_matrix exch def dup 4 get exch 5 get cairo_store_point
      /cairo_font where { pop cairo_selectfont } if } bind def
/Tm { 2 copy 8 2 roll 6 array astore /cairo_font_matrix exch def
      cairo_store_point /cairo_font where { pop cairo_selectfont } if } bind def
/g { setgray } bind def
/rg { setrgbcolor } bind def
/d1 { setcachedevice } bind def
%%EndProlog
%%Page: 1 1
%%BeginPageSetup
%%PageBoundingBox: 0 0 11 35
%%EndPageSetup
q
0 g
3.668 26.002 m 4.176 26.541 4.703 26.944 5.25 27.209 c 5.797 27.475 
6.363 27.608 6.949 27.608 c 8.066 27.608 9.07 27.213 9.961 26.424 c 
10.852 25.635 11.297 24.447 11.297 22.861 c 11.297 21.151 10.793 19.772 
9.785 18.725 c 8.777 17.686 7.461 17.166 5.836 17.166 c 4.117 17.166 
2.754 17.787 1.746 19.029 c 0.582 20.475 0 22.459 0 24.983 c 0 27.842 
0.703 30.147 2.109 31.897 c 3.359 33.451 4.906 34.229 6.75 34.229 c 
7.93 34.229 8.875 33.936 9.586 33.35 c 10.305 32.764 10.664 32.08 
10.664 31.299 c 10.664 30.736 10.492 30.276 10.148 29.916 c 9.805 
29.557 9.375 29.377 8.859 29.377 c 8.406 29.377 8.027 29.533 7.723 
29.846 c 7.418 30.158 7.266 30.549 7.266 31.018 c 7.266 31.369 7.367 
31.713 7.57 32.049 c 7.688 32.244 7.746 32.404 7.746 32.529 c 7.746 
32.725 7.664 32.881 7.5 32.998 c 7.336 33.123 7.086 33.186 6.75 33.186 
c 5.773 33.186 5.039 32.639 4.547 31.545 c 3.938 30.201 3.645 28.354 
3.668 26.002 c 5.93 26.061 m 5.344 26.061 4.816 25.74 4.348 25.1 c 
3.879 24.459 3.645 23.541 3.645 22.346 c 3.645 20.979 3.895 19.901 
4.395 19.111 c 4.746 18.549 5.219 18.268 5.812 18.268 c 6.414 18.268 
6.914 18.572 7.312 19.182 c 7.711 19.799 7.91 20.838 7.91 22.299 c 7.91 
23.713 7.727 24.694 7.359 25.24 c 6.992 25.787 6.516 26.061 5.93 26.061 
c f
7.629 10.018 m 9.02 9.424 9.977 8.768 10.5 8.049 c 11.031 7.338 11.297 
6.44 11.297 5.354 c 11.297 3.768 10.777 2.479 9.738 1.486 c 8.699 0.494 
7.289 -0.002 5.508 -0.002 c 3.781 -0.002 2.43 0.397 1.453 1.194 c 0.484 
1.99 0 3.01 0 4.252 c 0 5.174 0.27 5.951 0.809 6.584 c 1.355 7.217 
2.332 7.776 3.738 8.26 c 2.559 8.83 1.746 9.44 1.301 10.088 c 0.855 
10.736 0.633 11.514 0.633 12.42 c 0.633 13.694 1.109 14.783 2.062 15.69 
c 3.023 16.604 4.23 17.061 5.684 17.061 c 7.121 17.061 8.281 16.713 
9.164 16.018 c 10.047 15.322 10.488 14.514 10.488 13.592 c 10.488 
12.912 10.281 12.287 9.867 11.717 c 9.453 11.147 8.707 10.58 7.629 
10.018 c 6.727 10.346 m 7.359 10.822 7.785 11.268 8.004 11.682 c 8.23 
12.104 8.344 12.619 8.344 13.229 c 8.344 14.065 8.09 14.736 7.582 
15.244 c 7.074 15.76 6.402 16.018 5.566 16.018 c 4.785 16.018 4.152 
15.787 3.668 15.326 c 3.191 14.873 2.953 14.299 2.953 13.604 c 2.953 
12.947 3.18 12.385 3.633 11.916 c 4.094 11.455 5.125 10.932 6.727 
10.346 c 4.746 7.815 m 3.996 7.494 3.445 7.065 3.094 6.526 c 2.742 
5.994 2.566 5.295 2.566 4.428 c 2.566 3.373 2.855 2.549 3.434 1.955 c 
4.012 1.369 4.785 1.076 5.754 1.076 c 6.762 1.076 7.574 1.354 8.191 
1.908 c 8.816 2.471 9.129 3.19 9.129 4.065 c 9.129 4.908 8.824 5.58 
8.215 6.08 c 7.605 6.58 6.449 7.158 4.746 7.815 c f
Q
showpage
%%Trailer
count op_count sub {pop} repeat
countdictstack dict_count sub {end} repeat
cairo_eps_state restore
%%EOF
