%!PS-Adobe-3.0 EPSF-3.0
%%Creator: inkscape 0.46
%%Pages: 1
%%Orientation: Portrait
%%BoundingBox: 0 0 104 64
%%HiResBoundingBox: 4.5474735e-14 -3.1054687e-07 103.66829 63.056232
%%EndComments
%%Page: 1 1
0 64 translate
0.8 -0.8 scale
0 0 0 setrgbcolor
[] 0 setdash
1 setlinewidth
0 setlinejoin
0 setlinecap
gsave [1 0 0 1 0 0] concat
gsave [1 0 0 1 -311.06098 -140.21905] concat
0 0 0 setrgbcolor
[] 0 setdash
1 setlinewidth
0 setlinejoin
0 setlinecap
newpath
440.14634 140.71905 moveto
440.14634 204.13369 lineto
401.77381 204.13369 lineto
401.77381 218.53934 lineto
350.67614 218.53934 lineto
350.67614 204.13369 lineto
311.56098 204.13369 lineto
311.56098 140.81443 lineto
440.14634 140.71905 lineto
closepath
stroke
grestore
grestore
showpage
%%EOF
