<?xml version="1.0" encoding="UTF-8" standalone="no"?>
<!-- Created with Inkscape (http://www.inkscape.org/) -->
<svg
   xmlns:dc="http://purl.org/dc/elements/1.1/"
   xmlns:cc="http://creativecommons.org/ns#"
   xmlns:rdf="http://www.w3.org/1999/02/22-rdf-syntax-ns#"
   xmlns:svg="http://www.w3.org/2000/svg"
   xmlns="http://www.w3.org/2000/svg"
   xmlns:xlink="http://www.w3.org/1999/xlink"
   xmlns:sodipodi="http://sodipodi.sourceforge.net/DTD/sodipodi-0.dtd"
   xmlns:inkscape="http://www.inkscape.org/namespaces/inkscape"
   width="124.3782"
   height="108.67091"
   id="svg2"
   sodipodi:version="0.32"
   inkscape:version="0.46"
   version="1.0"
   inkscape:export-xdpi="42.557007"
   inkscape:export-ydpi="42.557007"
   sodipodi:docname="MSN24_fig1.svg"
   inkscape:output_extension="org.inkscape.output.svg.inkscape">
  <defs
     id="defs4">
    <inkscape:perspective
       sodipodi:type="inkscape:persp3d"
       inkscape:vp_x="0 : 526.18109 : 1"
       inkscape:vp_y="0 : 1000 : 0"
       inkscape:vp_z="744.09448 : 526.18109 : 1"
       inkscape:persp3d-origin="372.04724 : 350.78739 : 1"
       id="perspective10" />
  </defs>
  <sodipodi:namedview
     id="base"
     pagecolor="#ffffff"
     bordercolor="#666666"
     borderopacity="1.0"
     inkscape:pageopacity="0.0"
     inkscape:pageshadow="2"
     inkscape:zoom="1.0003729"
     inkscape:cx="242.52871"
     inkscape:cy="-4.1559364"
     inkscape:document-units="px"
     inkscape:current-layer="layer1"
     showgrid="false"
     inkscape:window-width="1353"
     inkscape:window-height="984"
     inkscape:window-x="8"
     inkscape:window-y="73" />
  <metadata
     id="metadata7">
    <rdf:RDF>
      <cc:Work
         rdf:about="">
        <dc:format>image/svg+xml</dc:format>
        <dc:type
           rdf:resource="http://purl.org/dc/dcmitype/StillImage" />
      </cc:Work>
    </rdf:RDF>
  </metadata>
  <g
     inkscape:label="Calque 1"
     inkscape:groupmode="layer"
     id="layer1"
     transform="translate(-219.96109,-187.1653)">
    <rect
       style="fill:none;fill-opacity:0.75;fill-rule:evenodd;stroke:#000000;stroke-width:1px;stroke-linecap:butt;stroke-linejoin:miter;stroke-opacity:1"
       id="rect3155"
       width="15.422276"
       height="15.381559"
       x="220.46109"
       y="187.6653"
       inkscape:tile-cx="228.17223"
       inkscape:tile-cy="195.35608"
       inkscape:tile-w="15.422276"
       inkscape:tile-h="15.381559"
       inkscape:tile-x0="220.46109"
       inkscape:tile-y0="187.6653" />
    <use
       x="0"
       y="0"
       inkscape:tiled-clone-of="#rect3155"
       xlink:href="#rect3155"
       id="use3157"
       inkscape:tile-cx="228.17223"
       inkscape:tile-cy="195.35608"
       inkscape:tile-w="15.422276"
       inkscape:tile-h="15.381559"
       inkscape:tile-x0="220.46109"
       inkscape:tile-y0="187.6653"
       width="744.09448"
       height="1052.3622" />
    <use
       x="0"
       y="0"
       inkscape:tiled-clone-of="#use3157"
       xlink:href="#use3157"
       id="use3269"
       width="744.09448"
       height="1052.3622" />
    <use
       x="0"
       y="0"
       inkscape:tiled-clone-of="#use3157"
       xlink:href="#use3157"
       transform="translate(0,15.381559)"
       id="use3271"
       width="744.09448"
       height="1052.3622" />
    <use
       x="0"
       y="0"
       inkscape:tiled-clone-of="#use3157"
       xlink:href="#use3157"
       transform="translate(0,30.763119)"
       id="use3273"
       width="744.09448"
       height="1052.3622" />
    <use
       x="0"
       y="0"
       inkscape:tiled-clone-of="#use3157"
       xlink:href="#use3157"
       transform="translate(0,46.144678)"
       id="use3275"
       width="744.09448"
       height="1052.3622" />
    <use
       x="0"
       y="0"
       inkscape:tiled-clone-of="#use3157"
       xlink:href="#use3157"
       transform="translate(0,61.526237)"
       id="use3277"
       width="744.09448"
       height="1052.3622" />
    <use
       x="0"
       y="0"
       inkscape:tiled-clone-of="#use3157"
       xlink:href="#use3157"
       transform="translate(0,76.907797)"
       id="use3279"
       width="744.09448"
       height="1052.3622" />
    <use
       x="0"
       y="0"
       inkscape:tiled-clone-of="#use3157"
       xlink:href="#use3157"
       transform="translate(0,92.289356)"
       id="use3281"
       width="744.09448"
       height="1052.3622" />
    <use
       x="0"
       y="0"
       inkscape:tiled-clone-of="#use3157"
       xlink:href="#use3157"
       transform="translate(15.422276,0)"
       id="use3283"
       width="744.09448"
       height="1052.3622" />
    <use
       x="0"
       y="0"
       inkscape:tiled-clone-of="#use3157"
       xlink:href="#use3157"
       transform="translate(15.422276,15.381559)"
       id="use3285"
       width="744.09448"
       height="1052.3622" />
    <use
       x="0"
       y="0"
       inkscape:tiled-clone-of="#use3157"
       xlink:href="#use3157"
       transform="translate(15.422276,30.763119)"
       id="use3287"
       width="744.09448"
       height="1052.3622" />
    <use
       x="0"
       y="0"
       inkscape:tiled-clone-of="#use3157"
       xlink:href="#use3157"
       transform="translate(15.422276,46.144678)"
       id="use3289"
       width="744.09448"
       height="1052.3622" />
    <use
       x="0"
       y="0"
       inkscape:tiled-clone-of="#use3157"
       xlink:href="#use3157"
       transform="translate(15.422276,61.526237)"
       id="use3291"
       width="744.09448"
       height="1052.3622" />
    <use
       x="0"
       y="0"
       inkscape:tiled-clone-of="#use3157"
       xlink:href="#use3157"
       transform="translate(15.422276,76.907797)"
       id="use3293"
       width="744.09448"
       height="1052.3622" />
    <use
       x="0"
       y="0"
       inkscape:tiled-clone-of="#use3157"
       xlink:href="#use3157"
       transform="translate(15.422276,92.289356)"
       id="use3295"
       width="744.09448"
       height="1052.3622" />
    <use
       x="0"
       y="0"
       inkscape:tiled-clone-of="#use3157"
       xlink:href="#use3157"
       transform="translate(30.844551,0)"
       id="use3297"
       width="744.09448"
       height="1052.3622" />
    <use
       x="0"
       y="0"
       inkscape:tiled-clone-of="#use3157"
       xlink:href="#use3157"
       transform="translate(30.844551,15.381559)"
       id="use3299"
       width="744.09448"
       height="1052.3622" />
    <use
       x="0"
       y="0"
       inkscape:tiled-clone-of="#use3157"
       xlink:href="#use3157"
       transform="translate(30.844551,30.763119)"
       id="use3301"
       width="744.09448"
       height="1052.3622" />
    <use
       x="0"
       y="0"
       inkscape:tiled-clone-of="#use3157"
       xlink:href="#use3157"
       transform="translate(30.844551,46.144678)"
       id="use3303"
       width="744.09448"
       height="1052.3622" />
    <use
       x="0"
       y="0"
       inkscape:tiled-clone-of="#use3157"
       xlink:href="#use3157"
       transform="translate(30.844551,61.526237)"
       id="use3305"
       width="744.09448"
       height="1052.3622" />
    <use
       x="0"
       y="0"
       inkscape:tiled-clone-of="#use3157"
       xlink:href="#use3157"
       transform="translate(30.844551,76.907797)"
       id="use3307"
       width="744.09448"
       height="1052.3622" />
    <use
       x="0"
       y="0"
       inkscape:tiled-clone-of="#use3157"
       xlink:href="#use3157"
       transform="translate(30.844551,92.289356)"
       id="use3309"
       width="744.09448"
       height="1052.3622" />
    <use
       x="0"
       y="0"
       inkscape:tiled-clone-of="#use3157"
       xlink:href="#use3157"
       transform="translate(46.266827,0)"
       id="use3311"
       width="744.09448"
       height="1052.3622" />
    <use
       x="0"
       y="0"
       inkscape:tiled-clone-of="#use3157"
       xlink:href="#use3157"
       transform="translate(46.266827,15.381559)"
       id="use3313"
       width="744.09448"
       height="1052.3622" />
    <use
       x="0"
       y="0"
       inkscape:tiled-clone-of="#use3157"
       xlink:href="#use3157"
       transform="translate(46.266827,30.763119)"
       id="use3315"
       width="744.09448"
       height="1052.3622" />
    <use
       x="0"
       y="0"
       inkscape:tiled-clone-of="#use3157"
       xlink:href="#use3157"
       transform="translate(46.266827,46.144678)"
       id="use3317"
       width="744.09448"
       height="1052.3622" />
    <use
       x="0"
       y="0"
       inkscape:tiled-clone-of="#use3157"
       xlink:href="#use3157"
       transform="translate(46.266827,61.526237)"
       id="use3319"
       width="744.09448"
       height="1052.3622" />
    <use
       x="0"
       y="0"
       inkscape:tiled-clone-of="#use3157"
       xlink:href="#use3157"
       transform="translate(46.266827,76.907797)"
       id="use3321"
       width="744.09448"
       height="1052.3622" />
    <use
       x="0"
       y="0"
       inkscape:tiled-clone-of="#use3157"
       xlink:href="#use3157"
       transform="translate(46.266827,92.289356)"
       id="use3323"
       width="744.09448"
       height="1052.3622" />
    <use
       x="0"
       y="0"
       inkscape:tiled-clone-of="#use3157"
       xlink:href="#use3157"
       transform="translate(61.689102,0)"
       id="use3325"
       width="744.09448"
       height="1052.3622" />
    <use
       x="0"
       y="0"
       inkscape:tiled-clone-of="#use3157"
       xlink:href="#use3157"
       transform="translate(61.689102,15.381559)"
       id="use3327"
       width="744.09448"
       height="1052.3622" />
    <use
       x="0"
       y="0"
       inkscape:tiled-clone-of="#use3157"
       xlink:href="#use3157"
       transform="translate(61.689102,30.763119)"
       id="use3329"
       width="744.09448"
       height="1052.3622" />
    <use
       x="0"
       y="0"
       inkscape:tiled-clone-of="#use3157"
       xlink:href="#use3157"
       transform="translate(61.689102,46.144678)"
       id="use3331"
       width="744.09448"
       height="1052.3622" />
    <use
       x="0"
       y="0"
       inkscape:tiled-clone-of="#use3157"
       xlink:href="#use3157"
       transform="translate(61.689102,61.526237)"
       id="use3333"
       width="744.09448"
       height="1052.3622" />
    <use
       x="0"
       y="0"
       inkscape:tiled-clone-of="#use3157"
       xlink:href="#use3157"
       transform="translate(61.689102,76.907797)"
       id="use3335"
       width="744.09448"
       height="1052.3622" />
    <use
       x="0"
       y="0"
       inkscape:tiled-clone-of="#use3157"
       xlink:href="#use3157"
       transform="translate(61.689102,92.289356)"
       id="use3337"
       width="744.09448"
       height="1052.3622" />
    <use
       x="0"
       y="0"
       inkscape:tiled-clone-of="#use3157"
       xlink:href="#use3157"
       transform="translate(77.111378,0)"
       id="use3339"
       width="744.09448"
       height="1052.3622" />
    <use
       x="0"
       y="0"
       inkscape:tiled-clone-of="#use3157"
       xlink:href="#use3157"
       transform="translate(77.111378,15.381559)"
       id="use3341"
       width="744.09448"
       height="1052.3622" />
    <use
       x="0"
       y="0"
       inkscape:tiled-clone-of="#use3157"
       xlink:href="#use3157"
       transform="translate(77.111378,30.763119)"
       id="use3343"
       width="744.09448"
       height="1052.3622" />
    <use
       x="0"
       y="0"
       inkscape:tiled-clone-of="#use3157"
       xlink:href="#use3157"
       transform="translate(77.111378,46.144678)"
       id="use3345"
       width="744.09448"
       height="1052.3622" />
    <use
       x="0"
       y="0"
       inkscape:tiled-clone-of="#use3157"
       xlink:href="#use3157"
       transform="translate(77.111378,61.526237)"
       id="use3347"
       width="744.09448"
       height="1052.3622" />
    <use
       x="0"
       y="0"
       inkscape:tiled-clone-of="#use3157"
       xlink:href="#use3157"
       transform="translate(77.111378,76.907797)"
       id="use3349"
       width="744.09448"
       height="1052.3622" />
    <use
       x="0"
       y="0"
       inkscape:tiled-clone-of="#use3157"
       xlink:href="#use3157"
       transform="translate(77.111378,92.289356)"
       id="use3351"
       width="744.09448"
       height="1052.3622" />
    <use
       x="0"
       y="0"
       inkscape:tiled-clone-of="#use3157"
       xlink:href="#use3157"
       transform="translate(92.533653,0)"
       id="use3353"
       width="744.09448"
       height="1052.3622" />
    <use
       x="0"
       y="0"
       inkscape:tiled-clone-of="#use3157"
       xlink:href="#use3157"
       transform="translate(92.533653,15.381559)"
       id="use3355"
       width="744.09448"
       height="1052.3622" />
    <use
       x="0"
       y="0"
       inkscape:tiled-clone-of="#use3157"
       xlink:href="#use3157"
       transform="translate(92.533653,30.763119)"
       id="use3357"
       width="744.09448"
       height="1052.3622" />
    <use
       x="0"
       y="0"
       inkscape:tiled-clone-of="#use3157"
       xlink:href="#use3157"
       transform="translate(92.533653,46.144678)"
       id="use3359"
       width="744.09448"
       height="1052.3622" />
    <use
       x="0"
       y="0"
       inkscape:tiled-clone-of="#use3157"
       xlink:href="#use3157"
       transform="translate(92.533653,61.526237)"
       id="use3361"
       width="744.09448"
       height="1052.3622" />
    <use
       x="0"
       y="0"
       inkscape:tiled-clone-of="#use3157"
       xlink:href="#use3157"
       transform="translate(92.533653,76.907797)"
       id="use3363"
       width="744.09448"
       height="1052.3622" />
    <use
       x="0"
       y="0"
       inkscape:tiled-clone-of="#use3157"
       xlink:href="#use3157"
       transform="translate(92.533653,92.289356)"
       id="use3365"
       width="744.09448"
       height="1052.3622" />
    <use
       x="0"
       y="0"
       inkscape:tiled-clone-of="#use3157"
       xlink:href="#use3157"
       transform="translate(107.95593,0)"
       id="use3367"
       width="744.09448"
       height="1052.3622" />
    <use
       x="0"
       y="0"
       inkscape:tiled-clone-of="#use3157"
       xlink:href="#use3157"
       transform="translate(107.95593,15.381559)"
       id="use3369"
       width="744.09448"
       height="1052.3622" />
    <use
       x="0"
       y="0"
       inkscape:tiled-clone-of="#use3157"
       xlink:href="#use3157"
       transform="translate(107.95593,30.763119)"
       id="use3371"
       width="744.09448"
       height="1052.3622" />
    <use
       x="0"
       y="0"
       inkscape:tiled-clone-of="#use3157"
       xlink:href="#use3157"
       transform="translate(107.95593,46.144678)"
       id="use3373"
       width="744.09448"
       height="1052.3622" />
    <use
       x="0"
       y="0"
       inkscape:tiled-clone-of="#use3157"
       xlink:href="#use3157"
       transform="translate(107.95593,61.526237)"
       id="use3375"
       width="744.09448"
       height="1052.3622" />
    <use
       x="0"
       y="0"
       inkscape:tiled-clone-of="#use3157"
       xlink:href="#use3157"
       transform="translate(107.95593,76.907797)"
       id="use3377"
       width="744.09448"
       height="1052.3622" />
    <use
       x="0"
       y="0"
       inkscape:tiled-clone-of="#use3157"
       xlink:href="#use3157"
       transform="translate(107.95593,92.289356)"
       id="use3379"
       width="744.09448"
       height="1052.3622" />
  </g>
</svg>
