%!PS-Adobe-3.0 EPSF-3.0
%%Creator: inkscape 0.46
%%Pages: 1
%%Orientation: Portrait
%%BoundingBox: 0 0 100 87
%%HiResBoundingBox: 7.031249e-08 -1.1005859e-07 99.502565 86.936732
%%EndComments
%%Page: 1 1
0 87 translate
0.8 -0.8 scale
0 0 0 setrgbcolor
[] 0 setdash
1 setlinewidth
0 setlinejoin
0 setlinecap
gsave [1 0 0 1 0 0] concat
gsave [1 0 0 1 -219.96109 -187.1653] concat
0 0 0 setrgbcolor
[] 0 setdash
1 setlinewidth
0 setlinejoin
0 setlinecap
newpath
220.46109 187.6653 moveto
235.88337 187.6653 lineto
235.88337 203.04686 lineto
220.46109 203.04686 lineto
220.46109 187.6653 lineto
closepath
stroke
0 0 0 setrgbcolor
[] 0 setdash
1 setlinewidth
0 setlinejoin
0 setlinecap
newpath
220.46109 187.6653 moveto
235.88337 187.6653 lineto
235.88337 203.04686 lineto
220.46109 203.04686 lineto
220.46109 187.6653 lineto
closepath
stroke
0 0 0 setrgbcolor
[] 0 setdash
1 setlinewidth
0 setlinejoin
0 setlinecap
newpath
220.46109 187.6653 moveto
235.88337 187.6653 lineto
235.88337 203.04686 lineto
220.46109 203.04686 lineto
220.46109 187.6653 lineto
closepath
stroke
gsave [1 0 0 1 0 15.381559] concat
0 0 0 setrgbcolor
[] 0 setdash
1 setlinewidth
0 setlinejoin
0 setlinecap
newpath
220.46109 187.6653 moveto
235.88337 187.6653 lineto
235.88337 203.04686 lineto
220.46109 203.04686 lineto
220.46109 187.6653 lineto
closepath
stroke
grestore
gsave [1 0 0 1 0 30.763119] concat
0 0 0 setrgbcolor
[] 0 setdash
1 setlinewidth
0 setlinejoin
0 setlinecap
newpath
220.46109 187.6653 moveto
235.88337 187.6653 lineto
235.88337 203.04686 lineto
220.46109 203.04686 lineto
220.46109 187.6653 lineto
closepath
stroke
grestore
gsave [1 0 0 1 0 46.144678] concat
0 0 0 setrgbcolor
[] 0 setdash
1 setlinewidth
0 setlinejoin
0 setlinecap
newpath
220.46109 187.6653 moveto
235.88337 187.6653 lineto
235.88337 203.04686 lineto
220.46109 203.04686 lineto
220.46109 187.6653 lineto
closepath
stroke
grestore
gsave [1 0 0 1 0 61.526237] concat
0 0 0 setrgbcolor
[] 0 setdash
1 setlinewidth
0 setlinejoin
0 setlinecap
newpath
220.46109 187.6653 moveto
235.88337 187.6653 lineto
235.88337 203.04686 lineto
220.46109 203.04686 lineto
220.46109 187.6653 lineto
closepath
stroke
grestore
gsave [1 0 0 1 0 76.907797] concat
0 0 0 setrgbcolor
[] 0 setdash
1 setlinewidth
0 setlinejoin
0 setlinecap
newpath
220.46109 187.6653 moveto
235.88337 187.6653 lineto
235.88337 203.04686 lineto
220.46109 203.04686 lineto
220.46109 187.6653 lineto
closepath
stroke
grestore
gsave [1 0 0 1 0 92.289356] concat
0 0 0 setrgbcolor
[] 0 setdash
1 setlinewidth
0 setlinejoin
0 setlinecap
newpath
220.46109 187.6653 moveto
235.88337 187.6653 lineto
235.88337 203.04686 lineto
220.46109 203.04686 lineto
220.46109 187.6653 lineto
closepath
stroke
grestore
gsave [1 0 0 1 15.422276 0] concat
0 0 0 setrgbcolor
[] 0 setdash
1 setlinewidth
0 setlinejoin
0 setlinecap
newpath
220.46109 187.6653 moveto
235.88337 187.6653 lineto
235.88337 203.04686 lineto
220.46109 203.04686 lineto
220.46109 187.6653 lineto
closepath
stroke
grestore
gsave [1 0 0 1 15.422276 15.381559] concat
0 0 0 setrgbcolor
[] 0 setdash
1 setlinewidth
0 setlinejoin
0 setlinecap
newpath
220.46109 187.6653 moveto
235.88337 187.6653 lineto
235.88337 203.04686 lineto
220.46109 203.04686 lineto
220.46109 187.6653 lineto
closepath
stroke
grestore
gsave [1 0 0 1 15.422276 30.763119] concat
0 0 0 setrgbcolor
[] 0 setdash
1 setlinewidth
0 setlinejoin
0 setlinecap
newpath
220.46109 187.6653 moveto
235.88337 187.6653 lineto
235.88337 203.04686 lineto
220.46109 203.04686 lineto
220.46109 187.6653 lineto
closepath
stroke
grestore
gsave [1 0 0 1 15.422276 46.144678] concat
0 0 0 setrgbcolor
[] 0 setdash
1 setlinewidth
0 setlinejoin
0 setlinecap
newpath
220.46109 187.6653 moveto
235.88337 187.6653 lineto
235.88337 203.04686 lineto
220.46109 203.04686 lineto
220.46109 187.6653 lineto
closepath
stroke
grestore
gsave [1 0 0 1 15.422276 61.526237] concat
0 0 0 setrgbcolor
[] 0 setdash
1 setlinewidth
0 setlinejoin
0 setlinecap
newpath
220.46109 187.6653 moveto
235.88337 187.6653 lineto
235.88337 203.04686 lineto
220.46109 203.04686 lineto
220.46109 187.6653 lineto
closepath
stroke
grestore
gsave [1 0 0 1 15.422276 76.907797] concat
0 0 0 setrgbcolor
[] 0 setdash
1 setlinewidth
0 setlinejoin
0 setlinecap
newpath
220.46109 187.6653 moveto
235.88337 187.6653 lineto
235.88337 203.04686 lineto
220.46109 203.04686 lineto
220.46109 187.6653 lineto
closepath
stroke
grestore
gsave [1 0 0 1 15.422276 92.289356] concat
0 0 0 setrgbcolor
[] 0 setdash
1 setlinewidth
0 setlinejoin
0 setlinecap
newpath
220.46109 187.6653 moveto
235.88337 187.6653 lineto
235.88337 203.04686 lineto
220.46109 203.04686 lineto
220.46109 187.6653 lineto
closepath
stroke
grestore
gsave [1 0 0 1 30.844551 0] concat
0 0 0 setrgbcolor
[] 0 setdash
1 setlinewidth
0 setlinejoin
0 setlinecap
newpath
220.46109 187.6653 moveto
235.88337 187.6653 lineto
235.88337 203.04686 lineto
220.46109 203.04686 lineto
220.46109 187.6653 lineto
closepath
stroke
grestore
gsave [1 0 0 1 30.844551 15.381559] concat
0 0 0 setrgbcolor
[] 0 setdash
1 setlinewidth
0 setlinejoin
0 setlinecap
newpath
220.46109 187.6653 moveto
235.88337 187.6653 lineto
235.88337 203.04686 lineto
220.46109 203.04686 lineto
220.46109 187.6653 lineto
closepath
stroke
grestore
gsave [1 0 0 1 30.844551 30.763119] concat
0 0 0 setrgbcolor
[] 0 setdash
1 setlinewidth
0 setlinejoin
0 setlinecap
newpath
220.46109 187.6653 moveto
235.88337 187.6653 lineto
235.88337 203.04686 lineto
220.46109 203.04686 lineto
220.46109 187.6653 lineto
closepath
stroke
grestore
gsave [1 0 0 1 30.844551 46.144678] concat
0 0 0 setrgbcolor
[] 0 setdash
1 setlinewidth
0 setlinejoin
0 setlinecap
newpath
220.46109 187.6653 moveto
235.88337 187.6653 lineto
235.88337 203.04686 lineto
220.46109 203.04686 lineto
220.46109 187.6653 lineto
closepath
stroke
grestore
gsave [1 0 0 1 30.844551 61.526237] concat
0 0 0 setrgbcolor
[] 0 setdash
1 setlinewidth
0 setlinejoin
0 setlinecap
newpath
220.46109 187.6653 moveto
235.88337 187.6653 lineto
235.88337 203.04686 lineto
220.46109 203.04686 lineto
220.46109 187.6653 lineto
closepath
stroke
grestore
gsave [1 0 0 1 30.844551 76.907797] concat
0 0 0 setrgbcolor
[] 0 setdash
1 setlinewidth
0 setlinejoin
0 setlinecap
newpath
220.46109 187.6653 moveto
235.88337 187.6653 lineto
235.88337 203.04686 lineto
220.46109 203.04686 lineto
220.46109 187.6653 lineto
closepath
stroke
grestore
gsave [1 0 0 1 30.844551 92.289356] concat
0 0 0 setrgbcolor
[] 0 setdash
1 setlinewidth
0 setlinejoin
0 setlinecap
newpath
220.46109 187.6653 moveto
235.88337 187.6653 lineto
235.88337 203.04686 lineto
220.46109 203.04686 lineto
220.46109 187.6653 lineto
closepath
stroke
grestore
gsave [1 0 0 1 46.266827 0] concat
0 0 0 setrgbcolor
[] 0 setdash
1 setlinewidth
0 setlinejoin
0 setlinecap
newpath
220.46109 187.6653 moveto
235.88337 187.6653 lineto
235.88337 203.04686 lineto
220.46109 203.04686 lineto
220.46109 187.6653 lineto
closepath
stroke
grestore
gsave [1 0 0 1 46.266827 15.381559] concat
0 0 0 setrgbcolor
[] 0 setdash
1 setlinewidth
0 setlinejoin
0 setlinecap
newpath
220.46109 187.6653 moveto
235.88337 187.6653 lineto
235.88337 203.04686 lineto
220.46109 203.04686 lineto
220.46109 187.6653 lineto
closepath
stroke
grestore
gsave [1 0 0 1 46.266827 30.763119] concat
0 0 0 setrgbcolor
[] 0 setdash
1 setlinewidth
0 setlinejoin
0 setlinecap
newpath
220.46109 187.6653 moveto
235.88337 187.6653 lineto
235.88337 203.04686 lineto
220.46109 203.04686 lineto
220.46109 187.6653 lineto
closepath
stroke
grestore
gsave [1 0 0 1 46.266827 46.144678] concat
0 0 0 setrgbcolor
[] 0 setdash
1 setlinewidth
0 setlinejoin
0 setlinecap
newpath
220.46109 187.6653 moveto
235.88337 187.6653 lineto
235.88337 203.04686 lineto
220.46109 203.04686 lineto
220.46109 187.6653 lineto
closepath
stroke
grestore
gsave [1 0 0 1 46.266827 61.526237] concat
0 0 0 setrgbcolor
[] 0 setdash
1 setlinewidth
0 setlinejoin
0 setlinecap
newpath
220.46109 187.6653 moveto
235.88337 187.6653 lineto
235.88337 203.04686 lineto
220.46109 203.04686 lineto
220.46109 187.6653 lineto
closepath
stroke
grestore
gsave [1 0 0 1 46.266827 76.907797] concat
0 0 0 setrgbcolor
[] 0 setdash
1 setlinewidth
0 setlinejoin
0 setlinecap
newpath
220.46109 187.6653 moveto
235.88337 187.6653 lineto
235.88337 203.04686 lineto
220.46109 203.04686 lineto
220.46109 187.6653 lineto
closepath
stroke
grestore
gsave [1 0 0 1 46.266827 92.289356] concat
0 0 0 setrgbcolor
[] 0 setdash
1 setlinewidth
0 setlinejoin
0 setlinecap
newpath
220.46109 187.6653 moveto
235.88337 187.6653 lineto
235.88337 203.04686 lineto
220.46109 203.04686 lineto
220.46109 187.6653 lineto
closepath
stroke
grestore
gsave [1 0 0 1 61.689102 0] concat
0 0 0 setrgbcolor
[] 0 setdash
1 setlinewidth
0 setlinejoin
0 setlinecap
newpath
220.46109 187.6653 moveto
235.88337 187.6653 lineto
235.88337 203.04686 lineto
220.46109 203.04686 lineto
220.46109 187.6653 lineto
closepath
stroke
grestore
gsave [1 0 0 1 61.689102 15.381559] concat
0 0 0 setrgbcolor
[] 0 setdash
1 setlinewidth
0 setlinejoin
0 setlinecap
newpath
220.46109 187.6653 moveto
235.88337 187.6653 lineto
235.88337 203.04686 lineto
220.46109 203.04686 lineto
220.46109 187.6653 lineto
closepath
stroke
grestore
gsave [1 0 0 1 61.689102 30.763119] concat
0 0 0 setrgbcolor
[] 0 setdash
1 setlinewidth
0 setlinejoin
0 setlinecap
newpath
220.46109 187.6653 moveto
235.88337 187.6653 lineto
235.88337 203.04686 lineto
220.46109 203.04686 lineto
220.46109 187.6653 lineto
closepath
stroke
grestore
gsave [1 0 0 1 61.689102 46.144678] concat
0 0 0 setrgbcolor
[] 0 setdash
1 setlinewidth
0 setlinejoin
0 setlinecap
newpath
220.46109 187.6653 moveto
235.88337 187.6653 lineto
235.88337 203.04686 lineto
220.46109 203.04686 lineto
220.46109 187.6653 lineto
closepath
stroke
grestore
gsave [1 0 0 1 61.689102 61.526237] concat
0 0 0 setrgbcolor
[] 0 setdash
1 setlinewidth
0 setlinejoin
0 setlinecap
newpath
220.46109 187.6653 moveto
235.88337 187.6653 lineto
235.88337 203.04686 lineto
220.46109 203.04686 lineto
220.46109 187.6653 lineto
closepath
stroke
grestore
gsave [1 0 0 1 61.689102 76.907797] concat
0 0 0 setrgbcolor
[] 0 setdash
1 setlinewidth
0 setlinejoin
0 setlinecap
newpath
220.46109 187.6653 moveto
235.88337 187.6653 lineto
235.88337 203.04686 lineto
220.46109 203.04686 lineto
220.46109 187.6653 lineto
closepath
stroke
grestore
gsave [1 0 0 1 61.689102 92.289356] concat
0 0 0 setrgbcolor
[] 0 setdash
1 setlinewidth
0 setlinejoin
0 setlinecap
newpath
220.46109 187.6653 moveto
235.88337 187.6653 lineto
235.88337 203.04686 lineto
220.46109 203.04686 lineto
220.46109 187.6653 lineto
closepath
stroke
grestore
gsave [1 0 0 1 77.111378 0] concat
0 0 0 setrgbcolor
[] 0 setdash
1 setlinewidth
0 setlinejoin
0 setlinecap
newpath
220.46109 187.6653 moveto
235.88337 187.6653 lineto
235.88337 203.04686 lineto
220.46109 203.04686 lineto
220.46109 187.6653 lineto
closepath
stroke
grestore
gsave [1 0 0 1 77.111378 15.381559] concat
0 0 0 setrgbcolor
[] 0 setdash
1 setlinewidth
0 setlinejoin
0 setlinecap
newpath
220.46109 187.6653 moveto
235.88337 187.6653 lineto
235.88337 203.04686 lineto
220.46109 203.04686 lineto
220.46109 187.6653 lineto
closepath
stroke
grestore
gsave [1 0 0 1 77.111378 30.763119] concat
0 0 0 setrgbcolor
[] 0 setdash
1 setlinewidth
0 setlinejoin
0 setlinecap
newpath
220.46109 187.6653 moveto
235.88337 187.6653 lineto
235.88337 203.04686 lineto
220.46109 203.04686 lineto
220.46109 187.6653 lineto
closepath
stroke
grestore
gsave [1 0 0 1 77.111378 46.144678] concat
0 0 0 setrgbcolor
[] 0 setdash
1 setlinewidth
0 setlinejoin
0 setlinecap
newpath
220.46109 187.6653 moveto
235.88337 187.6653 lineto
235.88337 203.04686 lineto
220.46109 203.04686 lineto
220.46109 187.6653 lineto
closepath
stroke
grestore
gsave [1 0 0 1 77.111378 61.526237] concat
0 0 0 setrgbcolor
[] 0 setdash
1 setlinewidth
0 setlinejoin
0 setlinecap
newpath
220.46109 187.6653 moveto
235.88337 187.6653 lineto
235.88337 203.04686 lineto
220.46109 203.04686 lineto
220.46109 187.6653 lineto
closepath
stroke
grestore
gsave [1 0 0 1 77.111378 76.907797] concat
0 0 0 setrgbcolor
[] 0 setdash
1 setlinewidth
0 setlinejoin
0 setlinecap
newpath
220.46109 187.6653 moveto
235.88337 187.6653 lineto
235.88337 203.04686 lineto
220.46109 203.04686 lineto
220.46109 187.6653 lineto
closepath
stroke
grestore
gsave [1 0 0 1 77.111378 92.289356] concat
0 0 0 setrgbcolor
[] 0 setdash
1 setlinewidth
0 setlinejoin
0 setlinecap
newpath
220.46109 187.6653 moveto
235.88337 187.6653 lineto
235.88337 203.04686 lineto
220.46109 203.04686 lineto
220.46109 187.6653 lineto
closepath
stroke
grestore
gsave [1 0 0 1 92.533653 0] concat
0 0 0 setrgbcolor
[] 0 setdash
1 setlinewidth
0 setlinejoin
0 setlinecap
newpath
220.46109 187.6653 moveto
235.88337 187.6653 lineto
235.88337 203.04686 lineto
220.46109 203.04686 lineto
220.46109 187.6653 lineto
closepath
stroke
grestore
gsave [1 0 0 1 92.533653 15.381559] concat
0 0 0 setrgbcolor
[] 0 setdash
1 setlinewidth
0 setlinejoin
0 setlinecap
newpath
220.46109 187.6653 moveto
235.88337 187.6653 lineto
235.88337 203.04686 lineto
220.46109 203.04686 lineto
220.46109 187.6653 lineto
closepath
stroke
grestore
gsave [1 0 0 1 92.533653 30.763119] concat
0 0 0 setrgbcolor
[] 0 setdash
1 setlinewidth
0 setlinejoin
0 setlinecap
newpath
220.46109 187.6653 moveto
235.88337 187.6653 lineto
235.88337 203.04686 lineto
220.46109 203.04686 lineto
220.46109 187.6653 lineto
closepath
stroke
grestore
gsave [1 0 0 1 92.533653 46.144678] concat
0 0 0 setrgbcolor
[] 0 setdash
1 setlinewidth
0 setlinejoin
0 setlinecap
newpath
220.46109 187.6653 moveto
235.88337 187.6653 lineto
235.88337 203.04686 lineto
220.46109 203.04686 lineto
220.46109 187.6653 lineto
closepath
stroke
grestore
gsave [1 0 0 1 92.533653 61.526237] concat
0 0 0 setrgbcolor
[] 0 setdash
1 setlinewidth
0 setlinejoin
0 setlinecap
newpath
220.46109 187.6653 moveto
235.88337 187.6653 lineto
235.88337 203.04686 lineto
220.46109 203.04686 lineto
220.46109 187.6653 lineto
closepath
stroke
grestore
gsave [1 0 0 1 92.533653 76.907797] concat
0 0 0 setrgbcolor
[] 0 setdash
1 setlinewidth
0 setlinejoin
0 setlinecap
newpath
220.46109 187.6653 moveto
235.88337 187.6653 lineto
235.88337 203.04686 lineto
220.46109 203.04686 lineto
220.46109 187.6653 lineto
closepath
stroke
grestore
gsave [1 0 0 1 92.533653 92.289356] concat
0 0 0 setrgbcolor
[] 0 setdash
1 setlinewidth
0 setlinejoin
0 setlinecap
newpath
220.46109 187.6653 moveto
235.88337 187.6653 lineto
235.88337 203.04686 lineto
220.46109 203.04686 lineto
220.46109 187.6653 lineto
closepath
stroke
grestore
gsave [1 0 0 1 107.95593 0] concat
0 0 0 setrgbcolor
[] 0 setdash
1 setlinewidth
0 setlinejoin
0 setlinecap
newpath
220.46109 187.6653 moveto
235.88337 187.6653 lineto
235.88337 203.04686 lineto
220.46109 203.04686 lineto
220.46109 187.6653 lineto
closepath
stroke
grestore
gsave [1 0 0 1 107.95593 15.381559] concat
0 0 0 setrgbcolor
[] 0 setdash
1 setlinewidth
0 setlinejoin
0 setlinecap
newpath
220.46109 187.6653 moveto
235.88337 187.6653 lineto
235.88337 203.04686 lineto
220.46109 203.04686 lineto
220.46109 187.6653 lineto
closepath
stroke
grestore
gsave [1 0 0 1 107.95593 30.763119] concat
0 0 0 setrgbcolor
[] 0 setdash
1 setlinewidth
0 setlinejoin
0 setlinecap
newpath
220.46109 187.6653 moveto
235.88337 187.6653 lineto
235.88337 203.04686 lineto
220.46109 203.04686 lineto
220.46109 187.6653 lineto
closepath
stroke
grestore
gsave [1 0 0 1 107.95593 46.144678] concat
0 0 0 setrgbcolor
[] 0 setdash
1 setlinewidth
0 setlinejoin
0 setlinecap
newpath
220.46109 187.6653 moveto
235.88337 187.6653 lineto
235.88337 203.04686 lineto
220.46109 203.04686 lineto
220.46109 187.6653 lineto
closepath
stroke
grestore
gsave [1 0 0 1 107.95593 61.526237] concat
0 0 0 setrgbcolor
[] 0 setdash
1 setlinewidth
0 setlinejoin
0 setlinecap
newpath
220.46109 187.6653 moveto
235.88337 187.6653 lineto
235.88337 203.04686 lineto
220.46109 203.04686 lineto
220.46109 187.6653 lineto
closepath
stroke
grestore
gsave [1 0 0 1 107.95593 76.907797] concat
0 0 0 setrgbcolor
[] 0 setdash
1 setlinewidth
0 setlinejoin
0 setlinecap
newpath
220.46109 187.6653 moveto
235.88337 187.6653 lineto
235.88337 203.04686 lineto
220.46109 203.04686 lineto
220.46109 187.6653 lineto
closepath
stroke
grestore
gsave [1 0 0 1 107.95593 92.289356] concat
0 0 0 setrgbcolor
[] 0 setdash
1 setlinewidth
0 setlinejoin
0 setlinecap
newpath
220.46109 187.6653 moveto
235.88337 187.6653 lineto
235.88337 203.04686 lineto
220.46109 203.04686 lineto
220.46109 187.6653 lineto
closepath
stroke
grestore
grestore
grestore
showpage
%%EOF
