%!PS-Adobe-3.0 EPSF-3.0
%%Creator: inkscape 0.46
%%Pages: 1
%%Orientation: Portrait
%%BoundingBox: 0 0 174 51
%%HiResBoundingBox: 7.031249e-08 2.1231445e-06 173.52949 50.020991
%%EndComments
%%Page: 1 1
0 51 translate
0.8 -0.8 scale
0 0 0 setrgbcolor
[] 0 setdash
1 setlinewidth
0 setlinejoin
0 setlinecap
gsave [1 0 0 1 0 0] concat
gsave [1 0 0 1 -219.96109 -187.1653] concat
0 0 0 setrgbcolor
[] 0 setdash
1 setlinewidth
0 setlinejoin
0 setlinecap
newpath
220.46109 187.6653 moveto
235.88337 187.6653 lineto
235.88337 203.04686 lineto
220.46109 203.04686 lineto
220.46109 187.6653 lineto
closepath
stroke
0 0 0 setrgbcolor
[] 0 setdash
1 setlinewidth
0 setlinejoin
0 setlinecap
newpath
220.46109 187.6653 moveto
235.88337 187.6653 lineto
235.88337 203.04686 lineto
220.46109 203.04686 lineto
220.46109 187.6653 lineto
closepath
stroke
gsave [1 0 0 1 0 15.381559] concat
0 0 0 setrgbcolor
[] 0 setdash
1 setlinewidth
0 setlinejoin
0 setlinecap
newpath
220.46109 187.6653 moveto
235.88337 187.6653 lineto
235.88337 203.04686 lineto
220.46109 203.04686 lineto
220.46109 187.6653 lineto
closepath
stroke
grestore
gsave [1 0 0 1 0 30.763118] concat
0 0 0 setrgbcolor
[] 0 setdash
1 setlinewidth
0 setlinejoin
0 setlinecap
newpath
220.46109 187.6653 moveto
235.88337 187.6653 lineto
235.88337 203.04686 lineto
220.46109 203.04686 lineto
220.46109 187.6653 lineto
closepath
stroke
grestore
gsave [1 0 0 1 0 46.144677] concat
0 0 0 setrgbcolor
[] 0 setdash
1 setlinewidth
0 setlinejoin
0 setlinecap
newpath
220.46109 187.6653 moveto
235.88337 187.6653 lineto
235.88337 203.04686 lineto
220.46109 203.04686 lineto
220.46109 187.6653 lineto
closepath
stroke
grestore
gsave [1 0 0 1 15.422276 0] concat
0 0 0 setrgbcolor
[] 0 setdash
1 setlinewidth
0 setlinejoin
0 setlinecap
newpath
220.46109 187.6653 moveto
235.88337 187.6653 lineto
235.88337 203.04686 lineto
220.46109 203.04686 lineto
220.46109 187.6653 lineto
closepath
stroke
grestore
gsave [1 0 0 1 15.422276 15.381559] concat
0 0 0 setrgbcolor
[] 0 setdash
1 setlinewidth
0 setlinejoin
0 setlinecap
newpath
220.46109 187.6653 moveto
235.88337 187.6653 lineto
235.88337 203.04686 lineto
220.46109 203.04686 lineto
220.46109 187.6653 lineto
closepath
stroke
grestore
gsave [1 0 0 1 15.422276 30.763118] concat
0 0 0 setrgbcolor
[] 0 setdash
1 setlinewidth
0 setlinejoin
0 setlinecap
newpath
220.46109 187.6653 moveto
235.88337 187.6653 lineto
235.88337 203.04686 lineto
220.46109 203.04686 lineto
220.46109 187.6653 lineto
closepath
stroke
grestore
gsave [1 0 0 1 15.422276 46.144677] concat
0 0 0 setrgbcolor
[] 0 setdash
1 setlinewidth
0 setlinejoin
0 setlinecap
newpath
220.46109 187.6653 moveto
235.88337 187.6653 lineto
235.88337 203.04686 lineto
220.46109 203.04686 lineto
220.46109 187.6653 lineto
closepath
stroke
grestore
gsave [1 0 0 1 30.844552 0] concat
0 0 0 setrgbcolor
[] 0 setdash
1 setlinewidth
0 setlinejoin
0 setlinecap
newpath
220.46109 187.6653 moveto
235.88337 187.6653 lineto
235.88337 203.04686 lineto
220.46109 203.04686 lineto
220.46109 187.6653 lineto
closepath
stroke
grestore
gsave [1 0 0 1 30.844552 15.381559] concat
0 0 0 setrgbcolor
[] 0 setdash
1 setlinewidth
0 setlinejoin
0 setlinecap
newpath
220.46109 187.6653 moveto
235.88337 187.6653 lineto
235.88337 203.04686 lineto
220.46109 203.04686 lineto
220.46109 187.6653 lineto
closepath
stroke
grestore
gsave [1 0 0 1 30.844552 30.763118] concat
0 0 0 setrgbcolor
[] 0 setdash
1 setlinewidth
0 setlinejoin
0 setlinecap
newpath
220.46109 187.6653 moveto
235.88337 187.6653 lineto
235.88337 203.04686 lineto
220.46109 203.04686 lineto
220.46109 187.6653 lineto
closepath
stroke
grestore
gsave [1 0 0 1 30.844552 46.144677] concat
0 0 0 setrgbcolor
[] 0 setdash
1 setlinewidth
0 setlinejoin
0 setlinecap
newpath
220.46109 187.6653 moveto
235.88337 187.6653 lineto
235.88337 203.04686 lineto
220.46109 203.04686 lineto
220.46109 187.6653 lineto
closepath
stroke
grestore
gsave [1 0 0 1 46.266828 0] concat
0 0 0 setrgbcolor
[] 0 setdash
1 setlinewidth
0 setlinejoin
0 setlinecap
newpath
220.46109 187.6653 moveto
235.88337 187.6653 lineto
235.88337 203.04686 lineto
220.46109 203.04686 lineto
220.46109 187.6653 lineto
closepath
stroke
grestore
gsave [1 0 0 1 46.266828 15.381559] concat
0 0 0 setrgbcolor
[] 0 setdash
1 setlinewidth
0 setlinejoin
0 setlinecap
newpath
220.46109 187.6653 moveto
235.88337 187.6653 lineto
235.88337 203.04686 lineto
220.46109 203.04686 lineto
220.46109 187.6653 lineto
closepath
stroke
grestore
gsave [1 0 0 1 46.266828 30.763118] concat
0 0 0 setrgbcolor
[] 0 setdash
1 setlinewidth
0 setlinejoin
0 setlinecap
newpath
220.46109 187.6653 moveto
235.88337 187.6653 lineto
235.88337 203.04686 lineto
220.46109 203.04686 lineto
220.46109 187.6653 lineto
closepath
stroke
grestore
gsave [1 0 0 1 46.266828 46.144677] concat
0 0 0 setrgbcolor
[] 0 setdash
1 setlinewidth
0 setlinejoin
0 setlinecap
newpath
220.46109 187.6653 moveto
235.88337 187.6653 lineto
235.88337 203.04686 lineto
220.46109 203.04686 lineto
220.46109 187.6653 lineto
closepath
stroke
grestore
gsave [1 0 0 1 61.689104 0] concat
0 0 0 setrgbcolor
[] 0 setdash
1 setlinewidth
0 setlinejoin
0 setlinecap
newpath
220.46109 187.6653 moveto
235.88337 187.6653 lineto
235.88337 203.04686 lineto
220.46109 203.04686 lineto
220.46109 187.6653 lineto
closepath
stroke
grestore
gsave [1 0 0 1 61.689104 15.381559] concat
0 0 0 setrgbcolor
[] 0 setdash
1 setlinewidth
0 setlinejoin
0 setlinecap
newpath
220.46109 187.6653 moveto
235.88337 187.6653 lineto
235.88337 203.04686 lineto
220.46109 203.04686 lineto
220.46109 187.6653 lineto
closepath
stroke
grestore
gsave [1 0 0 1 61.689104 30.763118] concat
0 0 0 setrgbcolor
[] 0 setdash
1 setlinewidth
0 setlinejoin
0 setlinecap
newpath
220.46109 187.6653 moveto
235.88337 187.6653 lineto
235.88337 203.04686 lineto
220.46109 203.04686 lineto
220.46109 187.6653 lineto
closepath
stroke
grestore
gsave [1 0 0 1 61.689104 46.144677] concat
0 0 0 setrgbcolor
[] 0 setdash
1 setlinewidth
0 setlinejoin
0 setlinecap
newpath
220.46109 187.6653 moveto
235.88337 187.6653 lineto
235.88337 203.04686 lineto
220.46109 203.04686 lineto
220.46109 187.6653 lineto
closepath
stroke
grestore
gsave [1 0 0 1 77.11138 0] concat
0 0 0 setrgbcolor
[] 0 setdash
1 setlinewidth
0 setlinejoin
0 setlinecap
newpath
220.46109 187.6653 moveto
235.88337 187.6653 lineto
235.88337 203.04686 lineto
220.46109 203.04686 lineto
220.46109 187.6653 lineto
closepath
stroke
grestore
gsave [1 0 0 1 77.11138 15.381559] concat
0 0 0 setrgbcolor
[] 0 setdash
1 setlinewidth
0 setlinejoin
0 setlinecap
newpath
220.46109 187.6653 moveto
235.88337 187.6653 lineto
235.88337 203.04686 lineto
220.46109 203.04686 lineto
220.46109 187.6653 lineto
closepath
stroke
grestore
gsave [1 0 0 1 77.11138 30.763118] concat
0 0 0 setrgbcolor
[] 0 setdash
1 setlinewidth
0 setlinejoin
0 setlinecap
newpath
220.46109 187.6653 moveto
235.88337 187.6653 lineto
235.88337 203.04686 lineto
220.46109 203.04686 lineto
220.46109 187.6653 lineto
closepath
stroke
grestore
gsave [1 0 0 1 77.11138 46.144677] concat
0 0 0 setrgbcolor
[] 0 setdash
1 setlinewidth
0 setlinejoin
0 setlinecap
newpath
220.46109 187.6653 moveto
235.88337 187.6653 lineto
235.88337 203.04686 lineto
220.46109 203.04686 lineto
220.46109 187.6653 lineto
closepath
stroke
grestore
gsave [1 0 0 1 92.533656 0] concat
0 0 0 setrgbcolor
[] 0 setdash
1 setlinewidth
0 setlinejoin
0 setlinecap
newpath
220.46109 187.6653 moveto
235.88337 187.6653 lineto
235.88337 203.04686 lineto
220.46109 203.04686 lineto
220.46109 187.6653 lineto
closepath
stroke
grestore
gsave [1 0 0 1 92.533656 15.381559] concat
0 0 0 setrgbcolor
[] 0 setdash
1 setlinewidth
0 setlinejoin
0 setlinecap
newpath
220.46109 187.6653 moveto
235.88337 187.6653 lineto
235.88337 203.04686 lineto
220.46109 203.04686 lineto
220.46109 187.6653 lineto
closepath
stroke
grestore
gsave [1 0 0 1 92.533656 30.763118] concat
0 0 0 setrgbcolor
[] 0 setdash
1 setlinewidth
0 setlinejoin
0 setlinecap
newpath
220.46109 187.6653 moveto
235.88337 187.6653 lineto
235.88337 203.04686 lineto
220.46109 203.04686 lineto
220.46109 187.6653 lineto
closepath
stroke
grestore
gsave [1 0 0 1 92.533656 46.144677] concat
0 0 0 setrgbcolor
[] 0 setdash
1 setlinewidth
0 setlinejoin
0 setlinecap
newpath
220.46109 187.6653 moveto
235.88337 187.6653 lineto
235.88337 203.04686 lineto
220.46109 203.04686 lineto
220.46109 187.6653 lineto
closepath
stroke
grestore
gsave [1 0 0 1 107.95593 0] concat
0 0 0 setrgbcolor
[] 0 setdash
1 setlinewidth
0 setlinejoin
0 setlinecap
newpath
220.46109 187.6653 moveto
235.88337 187.6653 lineto
235.88337 203.04686 lineto
220.46109 203.04686 lineto
220.46109 187.6653 lineto
closepath
stroke
grestore
gsave [1 0 0 1 107.95593 15.381559] concat
0 0 0 setrgbcolor
[] 0 setdash
1 setlinewidth
0 setlinejoin
0 setlinecap
newpath
220.46109 187.6653 moveto
235.88337 187.6653 lineto
235.88337 203.04686 lineto
220.46109 203.04686 lineto
220.46109 187.6653 lineto
closepath
stroke
grestore
gsave [1 0 0 1 107.95593 30.763118] concat
0 0 0 setrgbcolor
[] 0 setdash
1 setlinewidth
0 setlinejoin
0 setlinecap
newpath
220.46109 187.6653 moveto
235.88337 187.6653 lineto
235.88337 203.04686 lineto
220.46109 203.04686 lineto
220.46109 187.6653 lineto
closepath
stroke
grestore
gsave [1 0 0 1 107.95593 46.144677] concat
0 0 0 setrgbcolor
[] 0 setdash
1 setlinewidth
0 setlinejoin
0 setlinecap
newpath
220.46109 187.6653 moveto
235.88337 187.6653 lineto
235.88337 203.04686 lineto
220.46109 203.04686 lineto
220.46109 187.6653 lineto
closepath
stroke
grestore
gsave [1 0 0 1 123.37821 0] concat
0 0 0 setrgbcolor
[] 0 setdash
1 setlinewidth
0 setlinejoin
0 setlinecap
newpath
220.46109 187.6653 moveto
235.88337 187.6653 lineto
235.88337 203.04686 lineto
220.46109 203.04686 lineto
220.46109 187.6653 lineto
closepath
stroke
grestore
gsave [1 0 0 1 123.37821 15.381559] concat
0 0 0 setrgbcolor
[] 0 setdash
1 setlinewidth
0 setlinejoin
0 setlinecap
newpath
220.46109 187.6653 moveto
235.88337 187.6653 lineto
235.88337 203.04686 lineto
220.46109 203.04686 lineto
220.46109 187.6653 lineto
closepath
stroke
grestore
gsave [1 0 0 1 123.37821 30.763118] concat
0 0 0 setrgbcolor
[] 0 setdash
1 setlinewidth
0 setlinejoin
0 setlinecap
newpath
220.46109 187.6653 moveto
235.88337 187.6653 lineto
235.88337 203.04686 lineto
220.46109 203.04686 lineto
220.46109 187.6653 lineto
closepath
stroke
grestore
gsave [1 0 0 1 123.37821 46.144677] concat
0 0 0 setrgbcolor
[] 0 setdash
1 setlinewidth
0 setlinejoin
0 setlinecap
newpath
220.46109 187.6653 moveto
235.88337 187.6653 lineto
235.88337 203.04686 lineto
220.46109 203.04686 lineto
220.46109 187.6653 lineto
closepath
stroke
grestore
gsave [1 0 0 1 138.80048 0] concat
0 0 0 setrgbcolor
[] 0 setdash
1 setlinewidth
0 setlinejoin
0 setlinecap
newpath
220.46109 187.6653 moveto
235.88337 187.6653 lineto
235.88337 203.04686 lineto
220.46109 203.04686 lineto
220.46109 187.6653 lineto
closepath
stroke
grestore
gsave [1 0 0 1 138.80048 15.381559] concat
0 0 0 setrgbcolor
[] 0 setdash
1 setlinewidth
0 setlinejoin
0 setlinecap
newpath
220.46109 187.6653 moveto
235.88337 187.6653 lineto
235.88337 203.04686 lineto
220.46109 203.04686 lineto
220.46109 187.6653 lineto
closepath
stroke
grestore
gsave [1 0 0 1 138.80048 30.763118] concat
0 0 0 setrgbcolor
[] 0 setdash
1 setlinewidth
0 setlinejoin
0 setlinecap
newpath
220.46109 187.6653 moveto
235.88337 187.6653 lineto
235.88337 203.04686 lineto
220.46109 203.04686 lineto
220.46109 187.6653 lineto
closepath
stroke
grestore
gsave [1 0 0 1 138.80048 46.144677] concat
0 0 0 setrgbcolor
[] 0 setdash
1 setlinewidth
0 setlinejoin
0 setlinecap
newpath
220.46109 187.6653 moveto
235.88337 187.6653 lineto
235.88337 203.04686 lineto
220.46109 203.04686 lineto
220.46109 187.6653 lineto
closepath
stroke
grestore
gsave [1 0 0 1 154.22276 0] concat
0 0 0 setrgbcolor
[] 0 setdash
1 setlinewidth
0 setlinejoin
0 setlinecap
newpath
220.46109 187.6653 moveto
235.88337 187.6653 lineto
235.88337 203.04686 lineto
220.46109 203.04686 lineto
220.46109 187.6653 lineto
closepath
stroke
grestore
gsave [1 0 0 1 154.22276 15.381559] concat
0 0 0 setrgbcolor
[] 0 setdash
1 setlinewidth
0 setlinejoin
0 setlinecap
newpath
220.46109 187.6653 moveto
235.88337 187.6653 lineto
235.88337 203.04686 lineto
220.46109 203.04686 lineto
220.46109 187.6653 lineto
closepath
stroke
grestore
gsave [1 0 0 1 154.22276 30.763118] concat
0 0 0 setrgbcolor
[] 0 setdash
1 setlinewidth
0 setlinejoin
0 setlinecap
newpath
220.46109 187.6653 moveto
235.88337 187.6653 lineto
235.88337 203.04686 lineto
220.46109 203.04686 lineto
220.46109 187.6653 lineto
closepath
stroke
grestore
gsave [1 0 0 1 154.22276 46.144677] concat
0 0 0 setrgbcolor
[] 0 setdash
1 setlinewidth
0 setlinejoin
0 setlinecap
newpath
220.46109 187.6653 moveto
235.88337 187.6653 lineto
235.88337 203.04686 lineto
220.46109 203.04686 lineto
220.46109 187.6653 lineto
closepath
stroke
grestore
gsave [1 0 0 1 169.64504 0] concat
0 0 0 setrgbcolor
[] 0 setdash
1 setlinewidth
0 setlinejoin
0 setlinecap
newpath
220.46109 187.6653 moveto
235.88337 187.6653 lineto
235.88337 203.04686 lineto
220.46109 203.04686 lineto
220.46109 187.6653 lineto
closepath
stroke
grestore
gsave [1 0 0 1 169.64504 15.381559] concat
0 0 0 setrgbcolor
[] 0 setdash
1 setlinewidth
0 setlinejoin
0 setlinecap
newpath
220.46109 187.6653 moveto
235.88337 187.6653 lineto
235.88337 203.04686 lineto
220.46109 203.04686 lineto
220.46109 187.6653 lineto
closepath
stroke
grestore
gsave [1 0 0 1 169.64504 30.763118] concat
0 0 0 setrgbcolor
[] 0 setdash
1 setlinewidth
0 setlinejoin
0 setlinecap
newpath
220.46109 187.6653 moveto
235.88337 187.6653 lineto
235.88337 203.04686 lineto
220.46109 203.04686 lineto
220.46109 187.6653 lineto
closepath
stroke
grestore
gsave [1 0 0 1 169.64504 46.144677] concat
0 0 0 setrgbcolor
[] 0 setdash
1 setlinewidth
0 setlinejoin
0 setlinecap
newpath
220.46109 187.6653 moveto
235.88337 187.6653 lineto
235.88337 203.04686 lineto
220.46109 203.04686 lineto
220.46109 187.6653 lineto
closepath
stroke
grestore
gsave [1 0 0 1 185.06731 0] concat
0 0 0 setrgbcolor
[] 0 setdash
1 setlinewidth
0 setlinejoin
0 setlinecap
newpath
220.46109 187.6653 moveto
235.88337 187.6653 lineto
235.88337 203.04686 lineto
220.46109 203.04686 lineto
220.46109 187.6653 lineto
closepath
stroke
grestore
gsave [1 0 0 1 185.06731 15.381559] concat
0 0 0 setrgbcolor
[] 0 setdash
1 setlinewidth
0 setlinejoin
0 setlinecap
newpath
220.46109 187.6653 moveto
235.88337 187.6653 lineto
235.88337 203.04686 lineto
220.46109 203.04686 lineto
220.46109 187.6653 lineto
closepath
stroke
grestore
gsave [1 0 0 1 185.06731 30.763118] concat
0 0 0 setrgbcolor
[] 0 setdash
1 setlinewidth
0 setlinejoin
0 setlinecap
newpath
220.46109 187.6653 moveto
235.88337 187.6653 lineto
235.88337 203.04686 lineto
220.46109 203.04686 lineto
220.46109 187.6653 lineto
closepath
stroke
grestore
gsave [1 0 0 1 185.06731 46.144677] concat
0 0 0 setrgbcolor
[] 0 setdash
1 setlinewidth
0 setlinejoin
0 setlinecap
newpath
220.46109 187.6653 moveto
235.88337 187.6653 lineto
235.88337 203.04686 lineto
220.46109 203.04686 lineto
220.46109 187.6653 lineto
closepath
stroke
grestore
gsave [1 0 0 1 200.48959 0] concat
0 0 0 setrgbcolor
[] 0 setdash
1 setlinewidth
0 setlinejoin
0 setlinecap
newpath
220.46109 187.6653 moveto
235.88337 187.6653 lineto
235.88337 203.04686 lineto
220.46109 203.04686 lineto
220.46109 187.6653 lineto
closepath
stroke
grestore
gsave [1 0 0 1 200.48959 15.381559] concat
0 0 0 setrgbcolor
[] 0 setdash
1 setlinewidth
0 setlinejoin
0 setlinecap
newpath
220.46109 187.6653 moveto
235.88337 187.6653 lineto
235.88337 203.04686 lineto
220.46109 203.04686 lineto
220.46109 187.6653 lineto
closepath
stroke
grestore
gsave [1 0 0 1 200.48959 30.763118] concat
0 0 0 setrgbcolor
[] 0 setdash
1 setlinewidth
0 setlinejoin
0 setlinecap
newpath
220.46109 187.6653 moveto
235.88337 187.6653 lineto
235.88337 203.04686 lineto
220.46109 203.04686 lineto
220.46109 187.6653 lineto
closepath
stroke
grestore
gsave [1 0 0 1 200.48959 46.144677] concat
0 0 0 setrgbcolor
[] 0 setdash
1 setlinewidth
0 setlinejoin
0 setlinecap
newpath
220.46109 187.6653 moveto
235.88337 187.6653 lineto
235.88337 203.04686 lineto
220.46109 203.04686 lineto
220.46109 187.6653 lineto
closepath
stroke
grestore
grestore
grestore
showpage
%%EOF
