%!PS-Adobe-3.0 EPSF-3.0
%%Creator: inkscape 0.46
%%Pages: 1
%%Orientation: Portrait
%%BoundingBox: 0 0 19 34
%%HiResBoundingBox: 0.1883193 0.0079298953 18.086704 33.543677
%%EndComments
%%Page: 1 1
0 34 translate
0.8 -0.8 scale
0 0 0 setrgbcolor
[] 0 setdash
1 setlinewidth
0 setlinejoin
0 setlinecap
gsave [1 0 0 1 0 0] concat
gsave [1 0 0 1 -440.71182 -9.2484745] concat
gsave [1 0 0 1 0 0] concat
gsave
0 0 0 setrgbcolor
newpath
451.09297 49.38984 moveto
454.48881 47.56987 456.29825 44.27529 455.18519 41.79688 curveto
453.99793 39.15324 449.91818 38.40716 446.07861 40.13151 curveto
442.23905 41.85587 440.08645 45.40091 441.27371 48.04454 curveto
442.46098 50.68818 446.54072 51.43426 450.38029 49.70991 curveto
450.62026 49.60214 450.86657 49.51117 451.09297 49.38984 curveto
closepath
eofill
grestore
grestore
0 0 0 setrgbcolor
[] 0 setdash
1.5 setlinewidth
0 setlinejoin
0 setlinecap
newpath
454.72547 43.05645 moveto
454.72547 9.46888 lineto
stroke
gsave [-1 0 0 -1 876.8202 224.8988] concat
gsave
0 0 0 setrgbcolor
newpath
418 179.92468 moveto
418 181.20184 416.99264 182.23718 415.75 182.23718 curveto
414.50736 182.23718 413.5 181.20184 413.5 179.92468 curveto
413.5 178.64752 414.50736 177.61218 415.75 177.61218 curveto
416.99264 177.61218 418 178.64752 418 179.92468 curveto
closepath
eofill
grestore
grestore
grestore
grestore
showpage
%%EOF
