%!PS-Adobe-3.0 EPSF-3.0
%%Creator: inkscape 0.46
%%Pages: 1
%%Orientation: Portrait
%%BoundingBox: 0 0 16 9
%%HiResBoundingBox: 0 2.0751953e-07 15.6 8.8026311
%%EndComments
%%Page: 1 1
0 9 translate
0.8 -0.8 scale
0 0 0 setrgbcolor
[] 0 setdash
1 setlinewidth
0 setlinejoin
0 setlinecap
gsave [1 0 0 1 0 0] concat
gsave [1 0 0 1 0 0] concat
gsave
0 0 0 setrgbcolor
newpath
9.125 0.0030002594 moveto
4.03428 0.18520026 0 2.5856003 0 5.5030003 curveto
0 8.5390003 4.368 11.003 9.75 11.003 curveto
15.132 11.003 19.5 8.5390003 19.5 5.5030003 curveto
19.5 2.4670003 15.132 0.0030002594 9.75 0.0030002594 curveto
9.53977 0.0030002594 9.33194 -0.0043997406 9.125 0.0030002594 curveto
closepath
7.5 1.0655003 moveto
8.8579 0.92650026 10.56798 1.5561003 12 2.8467003 curveto
14.14502 4.7799003 14.87122 7.4906003 13.625 8.9092003 curveto
13.59375 8.9405003 lineto
12.32289 10.3506 9.53145 9.9153003 7.375 7.9717003 curveto
5.21855 6.0282003 4.51039 3.2881003 5.78125 1.8780003 curveto
6.20818 1.4043003 6.81306 1.1358003 7.5 1.0655003 curveto
closepath
fill
grestore
grestore
grestore
showpage
%%EOF
