%!PS-Adobe-3.0 EPSF-3.0
%%Creator: inkscape 0.46
%%Pages: 1
%%Orientation: Portrait
%%BoundingBox: 0 0 55 49
%%HiResBoundingBox: 3.0909154e-09 2.165744e-06 54.786484 48.389832
%%EndComments
%%Page: 1 1
0 49 translate
0.8 -0.8 scale
0 0 0 setrgbcolor
[] 0 setdash
1 setlinewidth
0 setlinejoin
0 setlinecap
gsave [1 0 0 1 0 0] concat
gsave
0 0 0 setrgbcolor
newpath
40.22544 6.0060235 moveto
40.22544 5.7511235 lineto
41.6434 5.5343235 42.70102 5.112424 43.39829 4.485524 curveto
43.90219 4.040224 44.15414 3.509924 44.15415 2.894624 curveto
44.15414 2.431824 44.00766 2.050924 43.71469 1.752124 curveto
43.42172 1.447424 43.19223 1.138824 42.71372 0.98252414 curveto
42.08988 0.77882414 40.97002 0.64162414 40.46025 1.456024 curveto
40.67874 1.736524 40.84609 1.909724 40.80237 2.429924 curveto
40.75851 2.951824 40.02375 3.163524 39.82067 3.173124 curveto
39.64876 3.181224 38.96573 2.852724 38.9515 2.288524 curveto
38.94144 1.889524 39.15123 1.404224 39.47529 1.327224 curveto
39.94017 0.78242414 39.9944 0.72372414 40.5085 0.44002404 curveto
41.38417 -0.043175862 41.95532 0.0011240379 42.52369 0.0010240379 curveto
43.21509 0.0010240379 44.57016 0.56262414 44.9979 0.97862414 curveto
45.42562 1.388824 45.63949 1.910324 45.6395 2.543124 curveto
45.63949 3.082124 45.43734 3.600724 45.03305 4.098724 curveto
44.63461 4.596824 43.94613 5.042124 42.96762 5.434724 curveto
43.57699 5.6866235 44.03695 6.0499245 44.34751 6.5245235 curveto
44.65805 6.9933245 44.81332 7.5587235 44.81333 8.2208235 curveto
44.81332 8.9532245 44.60238 9.6886245 44.18051 10.426924 curveto
43.75863 11.159324 43.17856 11.727624 42.44028 12.131974 curveto
41.70785 12.530474 40.8436 12.417174 40.03501 12.417174 curveto
39.29672 12.417174 38.17382 11.985624 37.57212 11.415124 curveto
36.97042 10.844724 36.629776 10.196124 36.69809 9.6378245 curveto
36.81185 8.7079235 37.41001 8.5431245 37.8768 8.5118235 curveto
38.34061 8.4808245 38.79261 8.6106235 38.83384 9.2384245 curveto
38.86654 9.7363245 38.81235 10.009924 38.14438 10.589924 curveto
38.51352 11.263824 39.25874 11.887624 40.22446 11.909324 curveto
40.87009 11.923824 42.44321 11.607524 42.78305 10.998124 curveto
43.12875 10.382924 43.3016 9.7296245 43.30161 9.0382245 curveto
43.3016 8.4757235 43.18442 7.9747245 42.95005 7.5353235 curveto
42.72153 7.0958235 42.35824 6.7413245 41.8602 6.4718235 curveto
41.36215 6.1964235 40.81723 6.0411235 40.22544 6.0060235 curveto
fill
grestore
gsave [1 0 0 1 -18.70345 -991.5213] concat
gsave [1 0 0 1 0 0] concat
gsave
0 0 0 setrgbcolor
newpath
55.754151 1050.7599 moveto
59.149991 1048.9399 60.959431 1045.6453 59.846371 1043.1669 curveto
58.659111 1040.5233 54.579361 1039.7772 50.739791 1041.5015 curveto
46.900231 1043.2259 44.747631 1046.7709 45.934891 1049.4146 curveto
47.122161 1052.0582 51.201901 1052.8043 55.041471 1051.0799 curveto
55.281441 1050.9722 55.527751 1050.8812 55.754151 1050.7599 curveto
closepath
eofill
grestore
grestore
0 0 0 setrgbcolor
[] 0 setdash
1.5 setlinewidth
0 setlinejoin
0 setlinecap
newpath
59.386651 1044.4265 moveto
59.386651 1010.8389 lineto
stroke
grestore
gsave [1 0 0 1 0 -991.8749] concat
gsave [1 0 0 1 0 0] concat
gsave
0 0 0 setrgbcolor
newpath
10.145751 1051.1135 moveto
13.541591 1049.2935 15.351031 1045.9989 14.237971 1043.5205 curveto
13.050711 1040.8769 8.9709609 1040.1308 5.1313909 1041.8551 curveto
1.2918309 1043.5795 -0.86076913 1047.1245 0.32649087 1049.7682 curveto
1.5137609 1052.4118 5.5935009 1053.1579 9.4330709 1051.4335 curveto
9.6730409 1051.3258 9.9193509 1051.2348 10.145751 1051.1135 curveto
closepath
eofill
grestore
grestore
0 0 0 setrgbcolor
[] 0 setdash
1.5 setlinewidth
0 setlinejoin
0 setlinecap
newpath
13.778251 1044.7801 moveto
13.778251 1011.1925 lineto
stroke
grestore
gsave [-1 0 0 -1 0 0] concat
gsave
0 0 0 setrgbcolor
newpath
-68.419662 -22.32769 moveto
-13.000397 -22.32769 lineto
-13.000397 -17.85646 lineto
-68.419662 -17.85646 lineto
-68.419662 -22.32769 lineto
closepath
eofill
grestore
grestore
gsave [1 0 0 1 8.308908 -991.5213] concat
gsave [1 0 0 1 0 0] concat
gsave
0 0 0 setrgbcolor
newpath
55.754151 1050.7599 moveto
59.149991 1048.9399 60.959431 1045.6453 59.846371 1043.1669 curveto
58.659111 1040.5233 54.579361 1039.7772 50.739791 1041.5015 curveto
46.900231 1043.2259 44.747631 1046.7709 45.934891 1049.4146 curveto
47.122161 1052.0582 51.201901 1052.8043 55.041471 1051.0799 curveto
55.281441 1050.9722 55.527751 1050.8812 55.754151 1050.7599 curveto
closepath
eofill
grestore
grestore
0 0 0 setrgbcolor
[] 0 setdash
1.5 setlinewidth
0 setlinejoin
0 setlinecap
newpath
59.386651 1044.4265 moveto
59.386651 1010.8389 lineto
stroke
grestore
grestore
showpage
%%EOF
